<?xml version="1.0" encoding="UTF-8" standalone="no"?>
<!-- Created with Inkscape (http://www.inkscape.org/) -->

<svg
   id="svg2"
   sodipodi:version="0.32"
   inkscape:version="1.1.2 (0a00cf5339, 2022-02-04, custom)"
   width="670"
   height="220"
   version="1.0"
   sodipodi:docname="Isoentropic-Fanno_flow_through_a_nozzle.svg"
   inkscape:output_extension="org.inkscape.output.svg.inkscape"
   xmlns:inkscape="http://www.inkscape.org/namespaces/inkscape"
   xmlns:sodipodi="http://sodipodi.sourceforge.net/DTD/sodipodi-0.dtd"
   xmlns:xlink="http://www.w3.org/1999/xlink"
   xmlns="http://www.w3.org/2000/svg"
   xmlns:svg="http://www.w3.org/2000/svg"
   xmlns:rdf="http://www.w3.org/1999/02/22-rdf-syntax-ns#"
   xmlns:cc="http://creativecommons.org/ns#"
   xmlns:dc="http://purl.org/dc/elements/1.1/">
  <metadata
     id="metadata7">
    <rdf:RDF>
      <cc:Work
         rdf:about="">
        <dc:format>image/svg+xml</dc:format>
        <dc:type
           rdf:resource="http://purl.org/dc/dcmitype/StillImage" />
      </cc:Work>
    </rdf:RDF>
  </metadata>
  <defs
     id="defs5">
    <linearGradient
       inkscape:collect="always"
       id="linearGradient2995">
      <stop
         style="stop-color:#cfcf8e;stop-opacity:1;"
         offset="0"
         id="stop2997" />
      <stop
         style="stop-color:#cfcf8e;stop-opacity:0;"
         offset="1"
         id="stop2999" />
    </linearGradient>
    <linearGradient
       inkscape:collect="always"
       xlink:href="#linearGradient2995"
       id="linearGradient3001"
       x1="361.35507"
       y1="143.72978"
       x2="316.155"
       y2="143.72978"
       gradientUnits="userSpaceOnUse"
       gradientTransform="matrix(1.0698813,0,0,1,-44.40734,0)" />
    <linearGradient
       inkscape:collect="always"
       xlink:href="#linearGradient2995"
       id="linearGradient3080"
       gradientUnits="userSpaceOnUse"
       gradientTransform="matrix(1.0698813,0,0,1,-44.40734,0)"
       x1="361.35507"
       y1="143.72978"
       x2="316.155"
       y2="143.72978" />
  </defs>
  <sodipodi:namedview
     inkscape:window-height="1015"
     inkscape:window-width="1920"
     inkscape:pageshadow="2"
     inkscape:pageopacity="0.0"
     guidetolerance="10.0"
     gridtolerance="10.0"
     objecttolerance="10.0"
     borderopacity="1.0"
     bordercolor="#666666"
     pagecolor="#ffffff"
     id="base"
     showgrid="false"
     inkscape:zoom="0.82299546"
     inkscape:cx="478.13144"
     inkscape:cy="86.877758"
     inkscape:window-x="0"
     inkscape:window-y="32"
     inkscape:current-layer="svg2"
     inkscape:showpageshadow="false"
     showguides="true"
     inkscape:guide-bbox="true"
     inkscape:pagecheckerboard="0"
     inkscape:window-maximized="1" />
  <path
     sodipodi:nodetypes="ccccc"
     id="path2920"
     d="M 27.753545,204.242 L 27.753545,67.092716 L 643.1598,67.092716 L 643.1598,204.242 L 27.753545,204.242 z"
     style="fill:#66da90;fill-opacity:1;fill-rule:nonzero;stroke:none;stroke-width:3;stroke-linecap:butt;stroke-linejoin:round;stroke-miterlimit:4;stroke-dasharray:none;stroke-opacity:1" />
  <path
     style="fill:none;fill-opacity:1;fill-rule:nonzero;stroke:none;stroke-width:3;stroke-linecap:butt;stroke-linejoin:round;stroke-miterlimit:4;stroke-dasharray:none;stroke-opacity:1"
     d="M 301.53929,204.242 L 301.53929,67.092716 L 643.1598,67.092716 L 643.1598,204.242 L 301.53929,204.242 z"
     id="path2922"
     sodipodi:nodetypes="ccccc" />
  <path
     style="fill:#c0c0c0;fill-opacity:1;fill-rule:nonzero;stroke:#000000;stroke-width:3;stroke-linecap:butt;stroke-linejoin:round;stroke-miterlimit:4;stroke-dasharray:none;stroke-opacity:1"
     d="M 27.753545,52.810336 L 27.753545,72.247836 C 75.533571,72.247836 124.55548,112.52909 178.0973,112.52909 C 251.89632,112.52909 283.43705,72.247836 348.53479,72.247836 L 643.1598,72.247836 L 643.1598,52.810336 L 27.753545,52.810336 z"
     id="rect2333"
     sodipodi:nodetypes="ccssccc" />
  <g
     id="g2930"
     transform="translate(7.691045,9.9353356)">
    <path
       transform="translate(0.4295934,-1.7183735)"
       d="M 37.804216,23.580387 A 16.539345,16.539345 0 1 1 4.7255268,23.580387 A 16.539345,16.539345 0 1 1 37.804216,23.580387 z"
       sodipodi:ry="16.539345"
       sodipodi:rx="16.539345"
       sodipodi:cy="23.580387"
       sodipodi:cx="21.264872"
       id="path2928"
       style="opacity:1;fill:#ffccaa;fill-opacity:1;fill-rule:nonzero;stroke:#000000;stroke-width:2;stroke-linecap:butt;stroke-linejoin:round;stroke-miterlimit:4;stroke-dasharray:none;stroke-opacity:1"
       sodipodi:type="arc" />
    <text
       id="text2924"
       y="31.91193"
       x="21.80559"
       style="font-style:normal;font-weight:bold;line-height:0%;font-family:Arial;text-align:center;text-anchor:middle;opacity:1;fill:#000000;fill-opacity:1;fill-rule:nonzero;stroke:none;stroke-width:3;stroke-linecap:butt;stroke-linejoin:round;stroke-miterlimit:4;stroke-dasharray:none;stroke-opacity:1"
       xml:space="preserve"><tspan
         y="31.91193"
         x="21.80559"
         id="tspan2926"
         sodipodi:role="line"
         style="font-size:28.4481px;line-height:1.25">1</tspan></text>
  </g>
  <g
     id="g2935"
     transform="translate(159.76709,9.9353356)">
    <path
       sodipodi:type="arc"
       style="opacity:1;fill:#ffccaa;fill-opacity:1;fill-rule:nonzero;stroke:#000000;stroke-width:2;stroke-linecap:butt;stroke-linejoin:round;stroke-miterlimit:4;stroke-dasharray:none;stroke-opacity:1"
       id="path2937"
       sodipodi:cx="21.264872"
       sodipodi:cy="23.580387"
       sodipodi:rx="16.539345"
       sodipodi:ry="16.539345"
       d="M 37.804216,23.580387 A 16.539345,16.539345 0 1 1 4.7255268,23.580387 A 16.539345,16.539345 0 1 1 37.804216,23.580387 z"
       transform="translate(0.4295934,-1.7183735)" />
    <text
       xml:space="preserve"
       style="font-style:normal;font-weight:bold;line-height:0%;font-family:Arial;text-align:center;text-anchor:middle;opacity:1;fill:#000000;fill-opacity:1;fill-rule:nonzero;stroke:none;stroke-width:3;stroke-linecap:butt;stroke-linejoin:round;stroke-miterlimit:4;stroke-dasharray:none;stroke-opacity:1"
       x="21.80559"
       y="31.91193"
       id="text2939"><tspan
         sodipodi:role="line"
         id="tspan2941"
         x="21.80559"
         y="31.91193"
         style="font-size:28.4481px;line-height:1.25">2</tspan></text>
  </g>
  <g
     transform="translate(304.11046,9.9353356)"
     id="g2943">
    <path
       transform="translate(0.4295934,-1.7183735)"
       d="M 37.804216,23.580387 A 16.539345,16.539345 0 1 1 4.7255268,23.580387 A 16.539345,16.539345 0 1 1 37.804216,23.580387 z"
       sodipodi:ry="16.539345"
       sodipodi:rx="16.539345"
       sodipodi:cy="23.580387"
       sodipodi:cx="21.264872"
       id="path2945"
       style="opacity:1;fill:#ffccaa;fill-opacity:1;fill-rule:nonzero;stroke:#000000;stroke-width:2;stroke-linecap:butt;stroke-linejoin:round;stroke-miterlimit:4;stroke-dasharray:none;stroke-opacity:1"
       sodipodi:type="arc" />
    <text
       id="text2947"
       y="31.91193"
       x="21.80559"
       style="font-style:normal;font-weight:bold;line-height:0%;font-family:Arial;text-align:center;text-anchor:middle;opacity:1;fill:#000000;fill-opacity:1;fill-rule:nonzero;stroke:none;stroke-width:3;stroke-linecap:butt;stroke-linejoin:round;stroke-miterlimit:4;stroke-dasharray:none;stroke-opacity:1"
       xml:space="preserve"><tspan
         y="31.91193"
         x="21.80559"
         id="tspan2949"
         sodipodi:role="line"
         style="font-size:28.4481px;line-height:1.25">3</tspan></text>
  </g>
  <g
     id="g2951"
     transform="translate(389.16995,9.9353356)">
    <path
       sodipodi:type="arc"
       style="opacity:1;fill:#ffccaa;fill-opacity:1;fill-rule:nonzero;stroke:#000000;stroke-width:2;stroke-linecap:butt;stroke-linejoin:round;stroke-miterlimit:4;stroke-dasharray:none;stroke-opacity:1"
       id="path2953"
       sodipodi:cx="21.264872"
       sodipodi:cy="23.580387"
       sodipodi:rx="16.539345"
       sodipodi:ry="16.539345"
       d="M 37.804216,23.580387 A 16.539345,16.539345 0 1 1 4.7255268,23.580387 A 16.539345,16.539345 0 1 1 37.804216,23.580387 z"
       transform="translate(0.4295934,-1.7183735)" />
    <text
       xml:space="preserve"
       style="font-style:normal;font-weight:bold;line-height:0%;font-family:Arial;text-align:center;text-anchor:middle;opacity:1;fill:#000000;fill-opacity:1;fill-rule:nonzero;stroke:none;stroke-width:3;stroke-linecap:butt;stroke-linejoin:round;stroke-miterlimit:4;stroke-dasharray:none;stroke-opacity:1"
       x="21.80559"
       y="31.91193"
       id="text2955"><tspan
         sodipodi:role="line"
         id="tspan2957"
         x="21.80559"
         y="31.91193"
         style="font-size:28.4481px;line-height:1.25">4</tspan></text>
  </g>
  <g
     transform="translate(447.59465,9.9353356)"
     id="g2959">
    <path
       transform="translate(0.4295934,-1.7183735)"
       d="M 37.804216,23.580387 A 16.539345,16.539345 0 1 1 4.7255268,23.580387 A 16.539345,16.539345 0 1 1 37.804216,23.580387 z"
       sodipodi:ry="16.539345"
       sodipodi:rx="16.539345"
       sodipodi:cy="23.580387"
       sodipodi:cx="21.264872"
       id="path2961"
       style="opacity:1;fill:#ffccaa;fill-opacity:1;fill-rule:nonzero;stroke:#000000;stroke-width:2;stroke-linecap:butt;stroke-linejoin:round;stroke-miterlimit:4;stroke-dasharray:none;stroke-opacity:1"
       sodipodi:type="arc" />
    <text
       id="text2963"
       y="31.91193"
       x="21.80559"
       style="font-style:normal;font-weight:bold;line-height:0%;font-family:Arial;text-align:center;text-anchor:middle;opacity:1;fill:#000000;fill-opacity:1;fill-rule:nonzero;stroke:none;stroke-width:3;stroke-linecap:butt;stroke-linejoin:round;stroke-miterlimit:4;stroke-dasharray:none;stroke-opacity:1"
       xml:space="preserve"><tspan
         y="31.91193"
         x="21.80559"
         id="tspan2965"
         sodipodi:role="line"
         style="font-size:28.4481px;line-height:1.25">5</tspan></text>
  </g>
  <g
     id="g2967"
     transform="translate(618.92002,9.9353356)">
    <path
       sodipodi:type="arc"
       style="opacity:1;fill:#ffccaa;fill-opacity:1;fill-rule:nonzero;stroke:#000000;stroke-width:2;stroke-linecap:butt;stroke-linejoin:round;stroke-miterlimit:4;stroke-dasharray:none;stroke-opacity:1"
       id="path2969"
       sodipodi:cx="21.264872"
       sodipodi:cy="23.580387"
       sodipodi:rx="16.539345"
       sodipodi:ry="16.539345"
       d="M 37.804216,23.580387 A 16.539345,16.539345 0 1 1 4.7255268,23.580387 A 16.539345,16.539345 0 1 1 37.804216,23.580387 z"
       transform="translate(0.4295934,-1.7183735)" />
    <text
       xml:space="preserve"
       style="font-style:normal;font-weight:bold;line-height:0%;font-family:Arial;text-align:center;text-anchor:middle;opacity:1;fill:#000000;fill-opacity:1;fill-rule:nonzero;stroke:none;stroke-width:3;stroke-linecap:butt;stroke-linejoin:round;stroke-miterlimit:4;stroke-dasharray:none;stroke-opacity:1"
       x="21.80559"
       y="31.91193"
       id="text2971"><tspan
         sodipodi:role="line"
         id="tspan2973"
         x="21.80559"
         y="31.91193"
         style="font-size:28.4481px;line-height:1.25">E</tspan></text>
  </g>
  <text
     id="text2979"
     y="170.03752"
     x="68.986526"
     style="font-style:normal;font-weight:bold;line-height:0%;font-family:Arial;text-align:center;text-anchor:middle;fill:#000000;fill-opacity:1;fill-rule:nonzero;stroke:none;stroke-width:3;stroke-linecap:butt;stroke-linejoin:round;stroke-miterlimit:4;stroke-dasharray:none;stroke-opacity:1"
     xml:space="preserve"><tspan
       y="170.03752"
       x="68.986526"
       id="tspan2981"
       sodipodi:role="line"
       style="font-size:28.4481px;line-height:1.25">Ma &lt; 1</tspan></text>
  <text
     xml:space="preserve"
     style="font-style:normal;font-weight:bold;line-height:0%;font-family:Arial;text-align:center;text-anchor:middle;fill:#000000;fill-opacity:1;fill-rule:nonzero;stroke:none;stroke-width:3;stroke-linecap:butt;stroke-linejoin:round;stroke-miterlimit:4;stroke-dasharray:none;stroke-opacity:1"
     x="180.22156"
     y="170.03752"
     id="text2983"><tspan
       sodipodi:role="line"
       id="tspan2985"
       x="180.22156"
       y="170.03752"
       style="font-size:28.4481px;line-height:1.25">Ma = 1</tspan></text>
  <text
     id="text2987"
     y="170.03752"
     x="344.54608"
     style="font-style:normal;font-weight:bold;line-height:0%;font-family:Arial;text-align:center;text-anchor:middle;fill:#000000;fill-opacity:1;fill-rule:nonzero;stroke:none;stroke-width:3;stroke-linecap:butt;stroke-linejoin:round;stroke-miterlimit:4;stroke-dasharray:none;stroke-opacity:1"
     xml:space="preserve"><tspan
       y="170.03752"
       x="344.54608"
       id="tspan2989"
       sodipodi:role="line"
       style="font-size:28.4481px;line-height:1.25">Ma &gt; 1</tspan></text>
  <text
     xml:space="preserve"
     style="font-style:normal;font-weight:bold;line-height:0%;font-family:Arial;text-align:center;text-anchor:middle;fill:#000000;fill-opacity:1;fill-rule:nonzero;stroke:none;stroke-width:3;stroke-linecap:butt;stroke-linejoin:round;stroke-miterlimit:4;stroke-dasharray:none;stroke-opacity:1"
     x="529.29614"
     y="170.03752"
     id="text2991"><tspan
       sodipodi:role="line"
       id="tspan2993"
       x="529.29614"
       y="170.03752"
       style="font-size:28.4481px;line-height:1.25">Ma &lt; 1</tspan></text>
  <path
     style="fill:#ff4e4e;fill-opacity:1;fill-rule:nonzero;stroke:#000000;stroke-width:2;stroke-linecap:butt;stroke-linejoin:round;stroke-miterlimit:4;stroke-dasharray:8, 4;stroke-dashoffset:0;stroke-opacity:1"
     d="M 180.38757,112.34611 L 180.38757,204.27909"
     id="path3031" />
  <path
     style="fill:#ff4e4e;fill-opacity:1;fill-rule:nonzero;stroke:#000000;stroke-width:2;stroke-linecap:butt;stroke-linejoin:round;stroke-miterlimit:4;stroke-dasharray:none;stroke-dashoffset:0;stroke-opacity:1"
     d="M 437.28441,71.96433 L 437.28441,203.8495"
     id="path3033" />
  <path
     id="path3035"
     d="M 442.08365,71.96433 L 442.08365,203.8495"
     style="fill:#ff4e4e;fill-opacity:1;fill-rule:nonzero;stroke:#000000;stroke-width:2;stroke-linecap:butt;stroke-linejoin:round;stroke-miterlimit:4;stroke-dasharray:none;stroke-dashoffset:0;stroke-opacity:1" />
  <path
     style="fill:#ff4e4e;fill-opacity:1;fill-rule:nonzero;stroke:#000000;stroke-width:3;stroke-linecap:butt;stroke-linejoin:round;stroke-miterlimit:4;stroke-dasharray:24, 6, 3, 6;stroke-dashoffset:0;stroke-opacity:1"
     d="M 27.753545,204.242 L 643.1598,204.242 L 27.753545,204.242 z"
     id="path3037"
     sodipodi:nodetypes="ccc" />
</svg>
